\relax 
\providecommand\hyper@newdestlabel[2]{}
\catcode `"\active 
\catcode `<\active 
\catcode `>\active 
\@nameuse{es@quoting}
\providecommand\HyperFirstAtBeginDocument{\AtBeginDocument}
\HyperFirstAtBeginDocument{\ifx\hyper@anchor\@undefined
\global\let\oldcontentsline\contentsline
\gdef\contentsline#1#2#3#4{\oldcontentsline{#1}{#2}{#3}}
\global\let\oldnewlabel\newlabel
\gdef\newlabel#1#2{\newlabelxx{#1}#2}
\gdef\newlabelxx#1#2#3#4#5#6{\oldnewlabel{#1}{{#2}{#3}}}
\AtEndDocument{\ifx\hyper@anchor\@undefined
\let\contentsline\oldcontentsline
\let\newlabel\oldnewlabel
\fi}
\fi}
\global\let\hyper@last\relax 
\gdef\HyperFirstAtBeginDocument#1{#1}
\providecommand\HyField@AuxAddToFields[1]{}
\providecommand\HyField@AuxAddToCoFields[2]{}
\babel@aux{spanish}{}
\@writefile{toc}{\contentsline {chapter}{\numberline {1}Introducci\IeC {\'o}n}{1}{chapter.1}\protected@file@percent }
\@writefile{lof}{\addvspace {10\p@ }}
\@writefile{lot}{\addvspace {10\p@ }}
\@writefile{toc}{\contentsline {section}{\numberline {1.1}Requerimiento Funcional}{1}{section.1.1}\protected@file@percent }
\@writefile{toc}{\contentsline {chapter}{\numberline {2}Documentaci\IeC {\'o}n del proceso}{2}{chapter.2}\protected@file@percent }
\@writefile{lof}{\addvspace {10\p@ }}
\@writefile{lot}{\addvspace {10\p@ }}
\@writefile{toc}{\contentsline {section}{\numberline {2.1}Misi\IeC {\'o}n}{2}{section.2.1}\protected@file@percent }
\@writefile{toc}{\contentsline {section}{\numberline {2.2}Visi\IeC {\'o}n}{2}{section.2.2}\protected@file@percent }
\@writefile{toc}{\contentsline {section}{\numberline {2.3}Pol\IeC {\'\i }ticas}{2}{section.2.3}\protected@file@percent }
\@writefile{toc}{\contentsline {section}{\numberline {2.4}Reglas de negocio}{2}{section.2.4}\protected@file@percent }
\@writefile{toc}{\contentsline {section}{\numberline {2.5}\IeC {\'A}reas y actores}{2}{section.2.5}\protected@file@percent }
\@writefile{toc}{\contentsline {section}{\numberline {2.6}BPMN}{2}{section.2.6}\protected@file@percent }
\@writefile{toc}{\contentsline {chapter}{\numberline {3}Modelo de Negocios}{3}{chapter.3}\protected@file@percent }
\@writefile{lof}{\addvspace {10\p@ }}
\@writefile{lot}{\addvspace {10\p@ }}
\@writefile{toc}{\contentsline {section}{\numberline {3.1}Modelo de entidades del negocio}{3}{section.3.1}\protected@file@percent }
\@writefile{lof}{\contentsline {figure}{\numberline {3.1}{\ignorespaces Modelo de Negocios}}{3}{figure.3.1}\protected@file@percent }
\newlabel{fig:UMLDiagramadeClases}{{3.1}{3}{Modelo de Negocios}{figure.3.1}{}}
\@writefile{toc}{\contentsline {section}{\numberline {3.2}Descripci\'on de entidades del negocio}{4}{section.3.2}\protected@file@percent }
\@writefile{toc}{\contentsline {subsection}{\numberline {3.2.1}Atributos de ``Alumno''}{4}{subsection.3.2.1}\protected@file@percent }
\@writefile{toc}{\contentsline {chapter}{\numberline {4}Casos de uso}{5}{chapter.4}\protected@file@percent }
\@writefile{lof}{\addvspace {10\p@ }}
\@writefile{lot}{\addvspace {10\p@ }}
\@writefile{lof}{\contentsline {figure}{\numberline {4.1}{\ignorespaces UML del Caso de Uso}}{5}{figure.4.1}\protected@file@percent }
\newlabel{fig:UMLCasosdeUso}{{4.1}{5}{UML del Caso de Uso}{figure.4.1}{}}
\gdef \LT@i {\LT@entry 
    {1}{111.50314pt}\LT@entry 
    {1}{364.9pt}}
\@writefile{toc}{\contentsline {section}{\numberline {4.1}CU2 }{6}{section.4.1}\protected@file@percent }
\@writefile{toc}{\contentsline {subsection}{\numberline {4.1.1}Descripci\IeC {\'o}n completa}{6}{subsection.4.1.1}\protected@file@percent }
\@writefile{toc}{\contentsline {subsection}{\numberline {4.1.2}Atributos importantes}{6}{subsection.4.1.2}\protected@file@percent }
\@writefile{toc}{\contentsline {subsection}{\numberline {4.1.3}Trayectorias del Caso de Uso}{6}{subsection.4.1.3}\protected@file@percent }
\newlabel{PantallaAcci\IeC {\'o}n}{{1}{6}{Casos de uso}{Item.1}{}}
\@writefile{toc}{\contentsline {chapter}{\numberline {5}Reglas de negocio}{8}{chapter.5}\protected@file@percent }
\@writefile{lof}{\addvspace {10\p@ }}
\@writefile{lot}{\addvspace {10\p@ }}
\@writefile{toc}{\contentsline {section}{\numberline {5.1}Reglas de Negocio}{8}{section.5.1}\protected@file@percent }
\@writefile{toc}{\contentsline {chapter}{\numberline {6}Pantallas}{9}{chapter.6}\protected@file@percent }
\@writefile{lof}{\addvspace {10\p@ }}
\@writefile{lot}{\addvspace {10\p@ }}
\@writefile{toc}{\contentsline {subsection}{\numberline {6.0.1}IU1 Pantalla de acciones}{9}{subsection.6.0.1}\protected@file@percent }
\@writefile{toc}{\contentsline {subsubsection}{Objetivo}{9}{subsubsection*.1}\protected@file@percent }
\@writefile{toc}{\contentsline {subsubsection}{Dise\~no}{9}{subsubsection*.2}\protected@file@percent }
\@writefile{lof}{\contentsline {figure}{\numberline {6.1}{\ignorespaces IU1 Pantalla de acciones}}{9}{figure.6.1}\protected@file@percent }
\newlabel{IU1}{{6.1}{9}{IU1 Pantalla de acciones}{figure.6.1}{}}
\@writefile{toc}{\contentsline {subsubsection}{Salidas}{9}{subsubsection*.3}\protected@file@percent }
\@writefile{toc}{\contentsline {subsubsection}{Entradas}{10}{subsubsection*.4}\protected@file@percent }
\@writefile{toc}{\contentsline {subsubsection}{Comandos}{10}{subsubsection*.5}\protected@file@percent }
\@writefile{toc}{\contentsline {subsubsection}{Mensajes}{10}{subsubsection*.6}\protected@file@percent }
\@writefile{toc}{\contentsline {subsection}{\numberline {6.0.2}IU2 Pantalla de modificaciones}{10}{subsection.6.0.2}\protected@file@percent }
\@writefile{toc}{\contentsline {subsubsection}{Objetivo}{10}{subsubsection*.7}\protected@file@percent }
\@writefile{toc}{\contentsline {subsubsection}{Dise\~no}{10}{subsubsection*.8}\protected@file@percent }
\@writefile{lof}{\contentsline {figure}{\numberline {6.2}{\ignorespaces IU2 Pantalla de modificaciones}}{10}{figure.6.2}\protected@file@percent }
\newlabel{IU2}{{6.2}{10}{IU2 Pantalla de modificaciones}{figure.6.2}{}}
\@writefile{toc}{\contentsline {subsubsection}{Salidas}{11}{subsubsection*.9}\protected@file@percent }
\@writefile{toc}{\contentsline {subsubsection}{Entradas}{11}{subsubsection*.10}\protected@file@percent }
\@writefile{toc}{\contentsline {subsubsection}{Comandos}{11}{subsubsection*.11}\protected@file@percent }
\@writefile{toc}{\contentsline {subsubsection}{Mensajes}{11}{subsubsection*.12}\protected@file@percent }
