\relax 
\providecommand\hyper@newdestlabel[2]{}
\catcode `"\active 
\catcode `<\active 
\catcode `>\active 
\@nameuse{es@quoting}
\providecommand\HyperFirstAtBeginDocument{\AtBeginDocument}
\HyperFirstAtBeginDocument{\ifx\hyper@anchor\@undefined
\global\let\oldcontentsline\contentsline
\gdef\contentsline#1#2#3#4{\oldcontentsline{#1}{#2}{#3}}
\global\let\oldnewlabel\newlabel
\gdef\newlabel#1#2{\newlabelxx{#1}#2}
\gdef\newlabelxx#1#2#3#4#5#6{\oldnewlabel{#1}{{#2}{#3}}}
\AtEndDocument{\ifx\hyper@anchor\@undefined
\let\contentsline\oldcontentsline
\let\newlabel\oldnewlabel
\fi}
\fi}
\global\let\hyper@last\relax 
\gdef\HyperFirstAtBeginDocument#1{#1}
\providecommand\HyField@AuxAddToFields[1]{}
\providecommand\HyField@AuxAddToCoFields[2]{}
\babel@aux{spanish}{}
\@writefile{toc}{\contentsline {chapter}{\numberline {1}Introducci\IeC {\'o}n}{1}{chapter.1}\protected@file@percent }
\@writefile{lof}{\addvspace {10\p@ }}
\@writefile{lot}{\addvspace {10\p@ }}
\@writefile{toc}{\contentsline {section}{\numberline {1.1}Requerimiento Funcional}{1}{section.1.1}\protected@file@percent }
\@writefile{toc}{\contentsline {chapter}{\numberline {2}Documentaci\IeC {\'o}n del proceso}{2}{chapter.2}\protected@file@percent }
\@writefile{lof}{\addvspace {10\p@ }}
\@writefile{lot}{\addvspace {10\p@ }}
\@writefile{toc}{\contentsline {section}{\numberline {2.1}Misi\IeC {\'o}n}{2}{section.2.1}\protected@file@percent }
\@writefile{toc}{\contentsline {section}{\numberline {2.2}Visi\IeC {\'o}n}{2}{section.2.2}\protected@file@percent }
\@writefile{toc}{\contentsline {section}{\numberline {2.3}Pol\IeC {\'\i }ticas}{2}{section.2.3}\protected@file@percent }
\@writefile{toc}{\contentsline {section}{\numberline {2.4}Reglas de negocio}{2}{section.2.4}\protected@file@percent }
\@writefile{toc}{\contentsline {section}{\numberline {2.5}\IeC {\'A}reas y actores}{2}{section.2.5}\protected@file@percent }
\@writefile{toc}{\contentsline {section}{\numberline {2.6}BPMN}{2}{section.2.6}\protected@file@percent }
\@writefile{toc}{\contentsline {chapter}{\numberline {3}Modelo de Negocios}{3}{chapter.3}\protected@file@percent }
\@writefile{lof}{\addvspace {10\p@ }}
\@writefile{lot}{\addvspace {10\p@ }}
\@writefile{toc}{\contentsline {section}{\numberline {3.1}Modelo de entidades del negocio}{3}{section.3.1}\protected@file@percent }
\@writefile{lof}{\contentsline {figure}{\numberline {3.1}{\ignorespaces Diagrama Modelo de Datos}}{3}{figure.3.1}\protected@file@percent }
\newlabel{fig:UMLDiagramadeClases}{{3.1}{3}{Diagrama Modelo de Datos}{figure.3.1}{}}
\@writefile{toc}{\contentsline {section}{\numberline {3.2}Descripci\'on de entidades del negocio}{4}{section.3.2}\protected@file@percent }
\@writefile{toc}{\contentsline {subsection}{\numberline {3.2.1}Atributos de ``Responsable''}{4}{subsection.3.2.1}\protected@file@percent }
\@writefile{toc}{\contentsline {chapter}{\numberline {4}Casos de uso}{5}{chapter.4}\protected@file@percent }
\@writefile{lof}{\addvspace {10\p@ }}
\@writefile{lot}{\addvspace {10\p@ }}
\@writefile{lof}{\contentsline {figure}{\numberline {4.1}{\ignorespaces UML del Caso de Uso}}{5}{figure.4.1}\protected@file@percent }
\newlabel{fig:UMLCasosdeUso}{{4.1}{5}{UML del Caso de Uso}{figure.4.1}{}}
\gdef \LT@i {\LT@entry 
    {1}{111.50314pt}\LT@entry 
    {1}{364.9pt}}
\@writefile{toc}{\contentsline {section}{\numberline {4.1}CU6.1 Registrar Responsable }{6}{section.4.1}\protected@file@percent }
\@writefile{toc}{\contentsline {subsection}{\numberline {4.1.1}Descripci\IeC {\'o}n completa}{6}{subsection.4.1.1}\protected@file@percent }
\@writefile{toc}{\contentsline {subsection}{\numberline {4.1.2}Atributos importantes}{6}{subsection.4.1.2}\protected@file@percent }
\@writefile{toc}{\contentsline {subsection}{\numberline {4.1.3}Trayectorias del Caso de Uso}{6}{subsection.4.1.3}\protected@file@percent }
\gdef \LT@ii {\LT@entry 
    {1}{111.50314pt}\LT@entry 
    {1}{364.9pt}}
\@writefile{toc}{\contentsline {section}{\numberline {4.2}CU6.2 Modificar Responsable }{8}{section.4.2}\protected@file@percent }
\@writefile{toc}{\contentsline {subsection}{\numberline {4.2.1}Descripci\IeC {\'o}n completa}{8}{subsection.4.2.1}\protected@file@percent }
\@writefile{toc}{\contentsline {subsection}{\numberline {4.2.2}Atributos importantes}{8}{subsection.4.2.2}\protected@file@percent }
\@writefile{toc}{\contentsline {subsection}{\numberline {4.2.3}Trayectorias del Caso de Uso}{8}{subsection.4.2.3}\protected@file@percent }
\gdef \LT@iii {\LT@entry 
    {1}{111.50314pt}\LT@entry 
    {1}{364.9pt}}
\@writefile{toc}{\contentsline {section}{\numberline {4.3}CU6.3 Consultar Responsable }{10}{section.4.3}\protected@file@percent }
\@writefile{toc}{\contentsline {subsection}{\numberline {4.3.1}Descripci\IeC {\'o}n completa}{10}{subsection.4.3.1}\protected@file@percent }
\@writefile{toc}{\contentsline {subsection}{\numberline {4.3.2}Atributos importantes}{10}{subsection.4.3.2}\protected@file@percent }
\@writefile{toc}{\contentsline {subsection}{\numberline {4.3.3}Trayectorias del Caso de Uso}{10}{subsection.4.3.3}\protected@file@percent }
\newlabel{CU4Cancelar}{{1}{10}{Casos de uso}{Item.41}{}}
\newlabel{CU4Cancelar}{{2}{10}{Casos de uso}{Item.42}{}}
\newlabel{CU4Cancelar}{{2}{10}{Casos de uso}{Item.45}{}}
\newlabel{CU4Cancelar}{{5}{11}{Casos de uso}{Item.48}{}}
\gdef \LT@iv {\LT@entry 
    {1}{111.50314pt}\LT@entry 
    {1}{364.9pt}}
\@writefile{toc}{\contentsline {section}{\numberline {4.4}CU6.4 Dar de Baja Responasble }{12}{section.4.4}\protected@file@percent }
\@writefile{toc}{\contentsline {subsection}{\numberline {4.4.1}Descripci\IeC {\'o}n completa}{12}{subsection.4.4.1}\protected@file@percent }
\@writefile{toc}{\contentsline {subsection}{\numberline {4.4.2}Atributos importantes}{12}{subsection.4.4.2}\protected@file@percent }
\@writefile{toc}{\contentsline {subsection}{\numberline {4.4.3}Trayectorias del Caso de Uso}{12}{subsection.4.4.3}\protected@file@percent }
\newlabel{CU4Cancelar}{{1}{12}{Casos de uso}{Item.51}{}}
\newlabel{CU4Cancelar}{{2}{12}{Casos de uso}{Item.52}{}}
\newlabel{CU4Cancelar}{{3}{12}{Casos de uso}{Item.53}{}}
\newlabel{CU4Cancelar}{{9}{13}{Casos de uso}{Item.59}{}}
\newlabel{CU4Cancelar}{{1}{13}{Casos de uso}{Item.60}{}}
\newlabel{CU4Cancelar}{{3}{13}{Casos de uso}{Item.62}{}}
\newlabel{CU4Cancelar}{{4}{13}{Casos de uso}{Item.63}{}}
\newlabel{CU4Cancelar}{{5}{13}{Casos de uso}{Item.64}{}}
\newlabel{CU4Cancelar}{{11}{13}{Casos de uso}{Item.70}{}}
\newlabel{CU4Cancelar}{{11}{13}{Casos de uso}{Item.70}{}}
\newlabel{CU4Cancelar}{{1}{13}{Casos de uso}{Item.71}{}}
\@writefile{toc}{\contentsline {chapter}{\numberline {5}Reglas de negocio}{14}{chapter.5}\protected@file@percent }
\@writefile{lof}{\addvspace {10\p@ }}
\@writefile{lot}{\addvspace {10\p@ }}
\@writefile{toc}{\contentsline {section}{\numberline {5.1}Reglas de Negocio}{14}{section.5.1}\protected@file@percent }
\@writefile{toc}{\contentsline {chapter}{\numberline {6}Pantallas}{16}{chapter.6}\protected@file@percent }
\@writefile{lof}{\addvspace {10\p@ }}
\@writefile{lot}{\addvspace {10\p@ }}
\@writefile{toc}{\contentsline {subsection}{\numberline {6.0.1}IU123 Pantalla de Responsables}{17}{subsection.6.0.1}\protected@file@percent }
\@writefile{toc}{\contentsline {subsubsection}{Objetivo}{17}{subsubsection*.1}\protected@file@percent }
\@writefile{toc}{\contentsline {subsubsection}{Dise\~no}{17}{subsubsection*.2}\protected@file@percent }
\@writefile{lof}{\contentsline {figure}{\numberline {6.1}{\ignorespaces UI123 Pantalla de Responsables}}{17}{figure.6.1}\protected@file@percent }
\newlabel{UI123}{{6.1}{17}{UI123 Pantalla de Responsables}{figure.6.1}{}}
\@writefile{toc}{\contentsline {subsubsection}{Salidas}{17}{subsubsection*.3}\protected@file@percent }
\@writefile{toc}{\contentsline {subsubsection}{Entradas}{17}{subsubsection*.4}\protected@file@percent }
\@writefile{toc}{\contentsline {subsubsection}{Comandos}{17}{subsubsection*.5}\protected@file@percent }
\@writefile{toc}{\contentsline {subsubsection}{Mensajes}{18}{subsubsection*.6}\protected@file@percent }
\@writefile{toc}{\contentsline {subsection}{\numberline {6.0.2}IU124 Pantalla de Registro}{19}{subsection.6.0.2}\protected@file@percent }
\@writefile{toc}{\contentsline {subsubsection}{Objetivo}{19}{subsubsection*.7}\protected@file@percent }
\@writefile{toc}{\contentsline {subsubsection}{Dise\~no}{19}{subsubsection*.8}\protected@file@percent }
\@writefile{lof}{\contentsline {figure}{\numberline {6.2}{\ignorespaces UI124 Pantalla de Registro}}{19}{figure.6.2}\protected@file@percent }
\newlabel{UI124}{{6.2}{19}{UI124 Pantalla de Registro}{figure.6.2}{}}
\@writefile{toc}{\contentsline {subsubsection}{Salidas}{19}{subsubsection*.9}\protected@file@percent }
\@writefile{toc}{\contentsline {subsubsection}{Entradas}{19}{subsubsection*.10}\protected@file@percent }
\@writefile{toc}{\contentsline {subsubsection}{Comandos}{19}{subsubsection*.11}\protected@file@percent }
\@writefile{toc}{\contentsline {subsubsection}{Mensajes}{20}{subsubsection*.12}\protected@file@percent }
\@writefile{toc}{\contentsline {subsection}{\numberline {6.0.3}IU632 Pantalla de Datos del Responsable.}{21}{subsection.6.0.3}\protected@file@percent }
\@writefile{toc}{\contentsline {subsubsection}{Objetivo}{21}{subsubsection*.13}\protected@file@percent }
\@writefile{toc}{\contentsline {subsubsection}{Dise\~no}{21}{subsubsection*.14}\protected@file@percent }
\@writefile{lof}{\contentsline {figure}{\numberline {6.3}{\ignorespaces UI632 Pantalla de Datos del Responsable}}{21}{figure.6.3}\protected@file@percent }
\newlabel{UI632}{{6.3}{21}{UI632 Pantalla de Datos del Responsable}{figure.6.3}{}}
\@writefile{toc}{\contentsline {subsubsection}{Salidas}{21}{subsubsection*.15}\protected@file@percent }
\@writefile{toc}{\contentsline {subsubsection}{Entradas}{21}{subsubsection*.16}\protected@file@percent }
\@writefile{toc}{\contentsline {subsubsection}{Comandos}{21}{subsubsection*.17}\protected@file@percent }
\@writefile{toc}{\contentsline {subsection}{\numberline {6.0.4}IU125 Pantalla de Modificaciones}{23}{subsection.6.0.4}\protected@file@percent }
\@writefile{toc}{\contentsline {subsubsection}{Objetivo}{23}{subsubsection*.18}\protected@file@percent }
\@writefile{toc}{\contentsline {subsubsection}{Dise\~no}{23}{subsubsection*.19}\protected@file@percent }
\@writefile{lof}{\contentsline {figure}{\numberline {6.4}{\ignorespaces UI125 Pantalla de Modificaciones}}{23}{figure.6.4}\protected@file@percent }
\newlabel{UI125}{{6.4}{23}{UI125 Pantalla de Modificaciones}{figure.6.4}{}}
\@writefile{toc}{\contentsline {subsubsection}{Salidas}{23}{subsubsection*.20}\protected@file@percent }
\@writefile{toc}{\contentsline {subsubsection}{Entradas}{23}{subsubsection*.21}\protected@file@percent }
\@writefile{toc}{\contentsline {subsubsection}{Comandos}{23}{subsubsection*.22}\protected@file@percent }
\@writefile{toc}{\contentsline {subsubsection}{Mensajes}{24}{subsubsection*.23}\protected@file@percent }
